{
	"sectionId": "intro",
	"slides": {
		"a1": [
			{
				"text": "Let's go!",
				"href": "#/s/intro/a2"
			}
		],
		"a2": [
			{
				"text": "Yes",
				"href": "#/s/intro/a3",
				"class": "primary"
			}, {
				"text": "I'm not sure, test my sound",
				"href": "#/s/intro/a2-1",
				"class": "secondary"
			}, {
				"text": "No, I'll use closed captioning",
				"href": "#/s/intro/a2-2",
				"class": "tertiary"
			}, {
				"text": "Default button color",
				"href": "#/s/intro/a2-1"
			}, {
				"text": "Cancel button color",
				"href": "#/s/intro/a2-1",
				"class": "cancel"
			}, {
				"text": "This button not shown for new hires",
				"href": "#/s/intro/a2-1",
				"class": "primary",
				"restrict": "new-hire old-guy"
			}
		],
		"a2-1": [
			{
				"text": "Yes",
				"href": "#/s/intro/a3"
			}, {
				"text": "No, I'll use closed captioning",
				"href": "#/s/intro/a2-2"
			}
		],
		"a2-2": [
			{
				"text": "Continue",
				"href": "#/s/intro/a3"
			}
		],
		"a3": [
			{
				"text": "Continue",
				"href": "#/s/intro/a4"
			}, {
				"text": "Skip Intro",
				"href": "#/s/intro/a6"
			}
		],
		"a4": [
			{
				"text": "Continue",
				"href": "#/s/intro/a5"
			}, {
				"text": "Skip Intro",
				"href": "#/s/intro/a6"
			}
		],
		"a5": [
			{
				"text": "Watch: \"HCA benefits aren't very good.\"",
				"href": "#/s/intro/a5-1"
			}, {
				"text": "Watch: I'm not sure if my base pay is competitive.",
				"href": "#/s/intro/a5-2"
			}, {
				"text": "I believe you. Let's move on",
				"href": "#/s/intro/a6"
			}
		],
		"a5-1": [
			{
				"text": "Watch: I'm not sure if my base pay is competitive.",
				"href": "#/s/intro/a5-2"
			}, {
				"text": "Next topic",
				"href": "#/s/intro/a6"
			}
		],
		"a5-2": [
			{
				"text": "Next topic",
				"href": "#/s/intro/a6"
			}
		],
		"a6": [
			{
				"text": "Okay, I'm ready",
				"href": "#/s/intro/a7"
			}
		],
		"a7": [
			{
				"text": "Review my current coverage",
				"href": "#/s/medical/b1"
			}, {
				"text": "Review plan options",
				"href": "#/s/medical/c1"
			}, {
				"text": "Next topic",
				"href": "#/s/intro/d1"
			}
		]

	}
}