{
	"sectionId": "medical",
	"slides": {
		"intro": [
			{
				"text": "You're not enrolled",
				"href": "#/s/medical/b4"
			}, {
				"text": "You're enrolled in a Non-Well Care Plan",
				"href": "#/s/dental/intro"
			}, {
				"text": "Please explain more!",
				"href": "#/s/medical/b3-1"
			}
		],
		"b3-1": [
			{
				"text": "Preventive care",
				"href": "#/s/medical/b3-2"
			}, {
				"text": "Premiums",
				"href": "#/s/medical/b3-8"
			}, {
				"text": "Deductibles and OOP Max",
				"href": "#/s/medical/b3-9"
			}, {
				"text": "Benefits Coverage and Cost",
				"href": "#/s/medical/b3-10"
			}
		],
		"b4": [
			{
				"text": "Dental",
				"href": "#/s/dental/intro"
			}, {
				"text": "Restart Medical",
				"href": "#/s/medical/intro"
			}
		]

	}
}