{
	"IcoMoonType": "selection",
	"icons": [
		{
			"icon": {
				"paths": [
					"M950.857 859.429v-438.857q-18.286 20.571-39.429 37.714-153.143 117.714-243.429 193.143-29.143 24.571-47.429 38.286t-49.429 27.714-58.571 14h-1.143q-27.429 0-58.571-14t-49.429-27.714-47.429-38.286q-90.286-75.429-243.429-193.143-21.143-17.143-39.429-37.714v438.857q0 7.429 5.429 12.857t12.857 5.429h841.143q7.429 0 12.857-5.429t5.429-12.857zM950.857 258.857v-14t-0.286-7.429-1.714-7.143-3.143-5.143-5.143-4.286-8-1.429h-841.143q-7.429 0-12.857 5.429t-5.429 12.857q0 96 84 162.286 110.286 86.857 229.143 181.143 3.429 2.857 20 16.857t26.286 21.429 25.429 18 28.857 15.714 24.571 5.143h1.143q11.429 0 24.571-5.143t28.857-15.714 25.429-18 26.286-21.429 20-16.857q118.857-94.286 229.143-181.143 30.857-24.571 57.429-66t26.571-75.143zM1024 237.714v621.714q0 37.714-26.857 64.571t-64.571 26.857h-841.143q-37.714 0-64.571-26.857t-26.857-64.571v-621.714q0-37.714 26.857-64.571t64.571-26.857h841.143q37.714 0 64.571 26.857t26.857 64.571z"
				],
				"attrs": [],
				"isMulticolor": false,
				"tags": [
					"envelope-o"
				],
				"defaultCode": 61443,
				"grid": 14
			},
			"attrs": [],
			"properties": {
				"id": 3,
				"order": 22,
				"prevSize": 14,
				"code": 61443,
				"name": "envelope"
			},
			"setIdx": 0,
			"setId": 11,
			"iconIdx": 3
		},
		{
			"icon": {
				"paths": [
					"M649.714 573.714l174.857-169.714-241.143-35.429-108-218.286-108 218.286-241.143 35.429 174.857 169.714-41.714 240.571 216-113.714 215.429 113.714zM950.857 369.714q0 12.571-14.857 27.429l-207.429 202.286 49.143 285.714q0.571 4 0.571 11.429 0 28.571-23.429 28.571-10.857 0-22.857-6.857l-256.571-134.857-256.571 134.857q-12.571 6.857-22.857 6.857-12 0-18-8.286t-6-20.286q0-3.429 1.143-11.429l49.143-285.714-208-202.286q-14.286-15.429-14.286-27.429 0-21.143 32-26.286l286.857-41.714 128.571-260q10.857-23.429 28-23.429t28 23.429l128.571 260 286.857 41.714q32 5.143 32 26.286z"
				],
				"width": 951,
				"attrs": [],
				"isMulticolor": false,
				"tags": [
					"star-o"
				],
				"defaultCode": 61446,
				"grid": 14
			},
			"attrs": [],
			"properties": {
				"id": 6,
				"order": 20,
				"prevSize": 14,
				"code": 61446,
				"name": "star"
			},
			"setIdx": 0,
			"setId": 11,
			"iconIdx": 6
		},
		{
			"icon": {
				"paths": [
					"M804.571 802.857q0 68.571-41.714 108.286t-110.857 39.714h-499.429q-69.143 0-110.857-39.714t-41.714-108.286q0-30.286 2-59.143t8-62.286 15.143-62 24.571-55.714 35.429-46.286 48.857-30.571 63.714-11.429q5.143 0 24 12.286t42.571 27.429 61.714 27.429 76.286 12.286 76.286-12.286 61.714-27.429 42.571-27.429 24-12.286q34.857 0 63.714 11.429t48.857 30.571 35.429 46.286 24.571 55.714 15.143 62 8 62.286 2 59.143zM621.714 292.571q0 90.857-64.286 155.143t-155.143 64.286-155.143-64.286-64.286-155.143 64.286-155.143 155.143-64.286 155.143 64.286 64.286 155.143z"
				],
				"width": 805,
				"attrs": [],
				"isMulticolor": false,
				"tags": [
					"user"
				],
				"defaultCode": 61447,
				"grid": 14
			},
			"attrs": [],
			"properties": {
				"id": 7,
				"order": 13,
				"prevSize": 14,
				"code": 61447,
				"name": "user"
			},
			"setIdx": 0,
			"setId": 11,
			"iconIdx": 7
		},
		{
			"icon": {
				"paths": [
					"M790.857 529.714l-758.857 421.714q-13.143 7.429-22.571 1.714t-9.429-20.571v-841.143q0-14.857 9.429-20.571t22.571 1.714l758.857 421.714q13.143 7.429 13.143 17.714t-13.143 17.714z"
				],
				"width": 805,
				"attrs": [],
				"isMulticolor": false,
				"tags": [
					"play"
				],
				"defaultCode": 61515,
				"grid": 14
			},
			"attrs": [],
			"properties": {
				"id": 71,
				"order": 24,
				"prevSize": 14,
				"code": 61515,
				"name": "play"
			},
			"setIdx": 0,
			"setId": 11,
			"iconIdx": 71
		},
		{
			"icon": {
				"paths": [
					"M877.714 109.714v804.571q0 14.857-10.857 25.714t-25.714 10.857h-292.571q-14.857 0-25.714-10.857t-10.857-25.714v-804.571q0-14.857 10.857-25.714t25.714-10.857h292.571q14.857 0 25.714 10.857t10.857 25.714zM365.714 109.714v804.571q0 14.857-10.857 25.714t-25.714 10.857h-292.571q-14.857 0-25.714-10.857t-10.857-25.714v-804.571q0-14.857 10.857-25.714t25.714-10.857h292.571q14.857 0 25.714 10.857t10.857 25.714z"
				],
				"width": 877.7142857142858,
				"attrs": [],
				"isMulticolor": false,
				"tags": [
					"pause"
				],
				"defaultCode": 61516,
				"grid": 14
			},
			"attrs": [],
			"properties": {
				"id": 72,
				"order": 25,
				"prevSize": 14,
				"code": 61516,
				"name": "pause"
			},
			"setIdx": 0,
			"setId": 11,
			"iconIdx": 72
		},
		{
			"icon": {
				"paths": [
					"M656.571 641.143q0-14.857-10.857-25.714l-103.429-103.429 103.429-103.429q10.857-10.857 10.857-25.714 0-15.429-10.857-26.286l-51.429-51.429q-10.857-10.857-26.286-10.857-14.857 0-25.714 10.857l-103.429 103.429-103.429-103.429q-10.857-10.857-25.714-10.857-15.429 0-26.286 10.857l-51.429 51.429q-10.857 10.857-10.857 26.286 0 14.857 10.857 25.714l103.429 103.429-103.429 103.429q-10.857 10.857-10.857 25.714 0 15.429 10.857 26.286l51.429 51.429q10.857 10.857 26.286 10.857 14.857 0 25.714-10.857l103.429-103.429 103.429 103.429q10.857 10.857 25.714 10.857 15.429 0 26.286-10.857l51.429-51.429q10.857-10.857 10.857-26.286zM877.714 512q0 119.429-58.857 220.286t-159.714 159.714-220.286 58.857-220.286-58.857-159.714-159.714-58.857-220.286 58.857-220.286 159.714-159.714 220.286-58.857 220.286 58.857 159.714 159.714 58.857 220.286z"
				],
				"width": 877.7142857142858,
				"attrs": [],
				"isMulticolor": false,
				"tags": [
					"times-circle"
				],
				"defaultCode": 61527,
				"grid": 14
			},
			"attrs": [],
			"properties": {
				"id": 82,
				"order": 16,
				"prevSize": 14,
				"code": 61527,
				"name": "times-circle"
			},
			"setIdx": 0,
			"setId": 11,
			"iconIdx": 82
		},
		{
			"icon": {
				"paths": [
					"M846.857 600q26.286 14.857 34 44.286t-7.143 55.714l-36.571 62.857q-14.857 26.286-44.286 34t-55.714-7.143l-152-87.429v175.429q0 29.714-21.714 51.429t-51.429 21.714h-73.143q-29.714 0-51.429-21.714t-21.714-51.429v-175.429l-152 87.429q-26.286 14.857-55.714 7.143t-44.286-34l-36.571-62.857q-14.857-26.286-7.143-55.714t34-44.286l152-88-152-88q-26.286-14.857-34-44.286t7.143-55.714l36.571-62.857q14.857-26.286 44.286-34t55.714 7.143l152 87.429v-175.429q0-29.714 21.714-51.429t51.429-21.714h73.143q29.714 0 51.429 21.714t21.714 51.429v175.429l152-87.429q26.286-14.857 55.714-7.143t44.286 34l36.571 62.857q14.857 26.286 7.143 55.714t-34 44.286l-152 88z"
				],
				"width": 951,
				"attrs": [],
				"isMulticolor": false,
				"tags": [
					"asterisk"
				],
				"defaultCode": 61545,
				"grid": 14
			},
			"attrs": [],
			"properties": {
				"id": 99,
				"order": 14,
				"prevSize": 14,
				"code": 61545,
				"name": "asterisk"
			},
			"setIdx": 0,
			"setId": 11,
			"iconIdx": 99
		},
		{
			"icon": {
				"paths": [
					"M731.429 402.286q0-14.857-10.857-25.714t-25.714-10.857q-98.286 0-181.714 28.286t-148.286 76.571-134.571 125.429q-10.857 12-10.857 25.714 0 14.857 10.857 25.714t25.714 10.857q13.714 0 25.714-10.857 15.429-13.714 42.286-40.571t38.286-37.714q78.286-70.857 153.429-100.571t179.143-29.714q14.857 0 25.714-10.857t10.857-25.714zM1024 289.143q0 54.286-11.429 110.286-26.286 128-105.429 218.857t-204.286 153.143q-122.286 61.714-250.286 61.714-84.571 0-163.429-26.857-8.571-2.857-50.286-24t-54.857-21.143q-9.143 0-22.571 18.286t-25.714 40-30 40-34.286 18.286q-17.143 0-29.143-6.286t-17.714-13.714-15.429-24q-1.143-2.286-3.429-6.286t-3.143-5.714-1.714-5.429-0.857-7.714q0-20 17.714-42t38.857-37.429 38.857-32 17.714-27.429q0-2.286-8-21.714t-9.143-25.143q-5.143-29.143-5.143-59.429 0-65.714 24.857-125.714t68-105.429 97.429-79.429 116.571-54.571q31.429-10.286 82.857-14.571t102.571-5.143 102-3.429 93.429-13.714 64.857-32.286l16.857-16.857t16.857-16 15.429-11.429 20.857-9.143 24.857-2.571q22.286 0 40.286 26.286t27.143 64 13.714 70.857 4.571 54.857z"
				],
				"attrs": [],
				"isMulticolor": false,
				"tags": [
					"leaf"
				],
				"defaultCode": 61548,
				"grid": 14
			},
			"attrs": [],
			"properties": {
				"id": 102,
				"order": 18,
				"prevSize": 14,
				"code": 61548,
				"name": "leaf"
			},
			"setIdx": 0,
			"setId": 11,
			"iconIdx": 102
		},
		{
			"icon": {
				"paths": [
					"M950.857 548.571q-86.857-134.857-217.714-201.714 34.857 59.429 34.857 128.571 0 105.714-75.143 180.857t-180.857 75.143-180.857-75.143-75.143-180.857q0-69.143 34.857-128.571-130.857 66.857-217.714 201.714 76 117.143 190.571 186.571t248.286 69.429 248.286-69.429 190.571-186.571zM539.429 329.143q0-11.429-8-19.429t-19.429-8q-71.429 0-122.571 51.143t-51.143 122.571q0 11.429 8 19.429t19.429 8 19.429-8 8-19.429q0-49.143 34.857-84t84-34.857q11.429 0 19.429-8t8-19.429zM1024 548.571q0 19.429-11.429 39.429-80 131.429-215.143 210.571t-285.429 79.143-285.429-79.429-215.143-210.286q-11.429-20-11.429-39.429t11.429-39.429q80-130.857 215.143-210.286t285.429-79.429 285.429 79.429 215.143 210.286q11.429 20 11.429 39.429z"
				],
				"attrs": [],
				"isMulticolor": false,
				"tags": [
					"eye"
				],
				"defaultCode": 61550,
				"grid": 14
			},
			"attrs": [],
			"properties": {
				"id": 104,
				"order": 12,
				"prevSize": 14,
				"code": 61550,
				"name": "eye"
			},
			"setIdx": 0,
			"setId": 11,
			"iconIdx": 104
		},
		{
			"icon": {
				"paths": [
					"M338.857 512q-92.571 2.857-151.429 73.143h-76.571q-46.857 0-78.857-23.143t-32-67.714q0-201.714 70.857-201.714 3.429 0 24.857 12t55.714 24.286 68 12.286q38.286 0 76-13.143-2.857 21.143-2.857 37.714 0 79.429 46.286 146.286zM950.857 876q0 68.571-41.714 108.286t-110.857 39.714h-499.429q-69.143 0-110.857-39.714t-41.714-108.286q0-30.286 2-59.143t8-62.286 15.143-62 24.571-55.714 35.429-46.286 48.857-30.571 63.714-11.429q5.714 0 24.571 12.286t41.714 27.429 61.143 27.429 77.143 12.286 77.143-12.286 61.143-27.429 41.714-27.429 24.571-12.286q34.857 0 63.714 11.429t48.857 30.571 35.429 46.286 24.571 55.714 15.143 62 8 62.286 2 59.143zM365.714 146.286q0 60.571-42.857 103.429t-103.429 42.857-103.429-42.857-42.857-103.429 42.857-103.429 103.429-42.857 103.429 42.857 42.857 103.429zM768 365.714q0 90.857-64.286 155.143t-155.143 64.286-155.143-64.286-64.286-155.143 64.286-155.143 155.143-64.286 155.143 64.286 64.286 155.143zM1097.143 494.286q0 44.571-32 67.714t-78.857 23.143h-76.571q-58.857-70.286-151.429-73.143 46.286-66.857 46.286-146.286 0-16.571-2.857-37.714 37.714 13.143 76 13.143 33.714 0 68-12.286t55.714-24.286 24.857-12q70.857 0 70.857 201.714zM1024 146.286q0 60.571-42.857 103.429t-103.429 42.857-103.429-42.857-42.857-103.429 42.857-103.429 103.429-42.857 103.429 42.857 42.857 103.429z"
				],
				"width": 1097,
				"attrs": [],
				"isMulticolor": false,
				"tags": [
					"group",
					"users"
				],
				"defaultCode": 61632,
				"grid": 14
			},
			"attrs": [],
			"properties": {
				"id": 168,
				"order": 19,
				"prevSize": 14,
				"code": 61632,
				"name": "group"
			},
			"setIdx": 0,
			"setId": 11,
			"iconIdx": 168
		},
		{
			"icon": {
				"paths": [
					"M219.429 768q0 14.857-10.857 25.714t-25.714 10.857-25.714-10.857-10.857-25.714 10.857-25.714 25.714-10.857 25.714 10.857 10.857 25.714zM804.571 802.857q0 69.143-41.714 108.571t-110.857 39.429h-499.429q-69.143 0-110.857-39.429t-41.714-108.571q0-38.857 3.143-74.857t13.714-78.857 27.143-75.714 46.286-58.857 68.571-34.571q-12.571 29.714-12.571 68.571v116q-33.143 11.429-53.143 40t-20 63.429q0 45.714 32 77.714t77.714 32 77.714-32 32-77.714q0-34.857-20.286-63.429t-52.857-40v-116q0-35.429 14.286-53.143 75.429 59.429 168.571 59.429t168.571-59.429q14.286 17.714 14.286 53.143v36.571q-60.571 0-103.429 42.857t-42.857 103.429v50.857q-18.286 16.571-18.286 40.571 0 22.857 16 38.857t38.857 16 38.857-16 16-38.857q0-24-18.286-40.571v-50.857q0-29.714 21.714-51.429t51.429-21.714 51.429 21.714 21.714 51.429v50.857q-18.286 16.571-18.286 40.571 0 22.857 16 38.857t38.857 16 38.857-16 16-38.857q0-24-18.286-40.571v-50.857q0-38.857-19.714-72.857t-53.429-53.429q0-5.714 0.286-24.286t0-27.429-1.429-23.714-4-26.857-7.429-22.857q38.857 8.571 68.571 34.571t46.286 58.857 27.143 75.714 13.714 78.857 3.143 74.857zM621.714 292.571q0 90.857-64.286 155.143t-155.143 64.286-155.143-64.286-64.286-155.143 64.286-155.143 155.143-64.286 155.143 64.286 64.286 155.143z"
				],
				"width": 805,
				"attrs": [],
				"isMulticolor": false,
				"tags": [
					"user-md"
				],
				"defaultCode": 61680,
				"grid": 14
			},
			"attrs": [],
			"properties": {
				"id": 213,
				"order": 15,
				"prevSize": 14,
				"code": 61680,
				"name": "user-md"
			},
			"setIdx": 0,
			"setId": 11,
			"iconIdx": 213
		},
		{
			"icon": {
				"paths": [
					"M480 64c-265.096 0-480 214.904-480 480 0 265.098 214.904 480 480 480 265.098 0 480-214.902 480-480 0-265.096-214.902-480-480-480zM480 928c-212.078 0-384-171.922-384-384s171.922-384 384-384c212.078 0 384 171.922 384 384s-171.922 384-384 384zM512 512v-128h128v-64h-128v-64h-64v64h-128v256h128v128h-128v64h128v64h64v-64h128.002l-0.002-256h-128zM448 512h-64v-128h64v128zM576.002 704h-64.002v-128h64.002v128z"
				],
				"attrs": [],
				"isMulticolor": false,
				"tags": [
					"coin-dollar",
					"money",
					"cash",
					"currency-dollar"
				],
				"grid": 16
			},
			"attrs": [],
			"properties": {
				"order": 17,
				"id": 1772,
				"prevSize": 32,
				"ligatures": "coin-dollar, money",
				"name": "coin-dollar",
				"code": 58880
			},
			"setIdx": 2,
			"setId": 9,
			"iconIdx": 59
		},
		{
			"icon": {
				"paths": [
					"M576 248.372v-248.372l384 384-384 384v-253.824c-446.75-10.482-427.588 303.792-313.86 509.824-280.712-303.414-221.1-789.57 313.86-775.628z"
				],
				"attrs": [],
				"isMulticolor": false,
				"tags": [
					"redo",
					"right",
					"arrow-right"
				],
				"grid": 16
			},
			"attrs": [],
			"properties": {
				"id": 418,
				"order": 21,
				"prevSize": 32,
				"ligatures": "redo2, right",
				"name": "arrow",
				"code": 58881
			},
			"setIdx": 2,
			"setId": 9,
			"iconIdx": 104
		},
		{
			"icon": {
				"paths": [
					"M128 213.333h768q17.667 0 30.167 12.5t12.5 30.167-12.5 30.167-30.167 12.5h-768q-17.667 0-30.167-12.5t-12.5-30.167 12.5-30.167 30.167-12.5zM128 725.333h768q17.667 0 30.167 12.5t12.5 30.167-12.5 30.167-30.167 12.5h-768q-17.667 0-30.167-12.5t-12.5-30.167 12.5-30.167 30.167-12.5zM128 469.333h768q17.667 0 30.167 12.5t12.5 30.167-12.5 30.167-30.167 12.5h-768q-17.667 0-30.167-12.5t-12.5-30.167 12.5-30.167 30.167-12.5z"
				],
				"tags": [
					"menu"
				],
				"defaultCode": 57632,
				"grid": 24,
				"attrs": []
			},
			"attrs": [],
			"properties": {
				"id": 120,
				"order": 23,
				"prevSize": 24,
				"code": 57632,
				"name": "menu",
				"ligatures": ""
			},
			"setIdx": 6,
			"setId": 4,
			"iconIdx": 120
		}
	],
	"height": 1024,
	"metadata": {
		"name": "icomoon"
	},
	"preferences": {
		"fontPref": {
			"prefix": "icon-",
			"metadata": {
				"fontFamily": "icomoon"
			},
			"showGlyphs": true,
			"metrics": {
				"emSize": 512,
				"baseline": 6.25,
				"whitespace": 50
			},
			"resetPoint": 58880,
			"showQuickUse": true,
			"quickUsageToken": false,
			"showMetrics": true,
			"showMetadata": false,
			"embed": false
		},
		"imagePref": {
			"color": 0,
			"height": 32,
			"columns": 16,
			"margin": 16,
			"png": false,
			"sprites": true,
			"prefix": "icon-"
		},
		"historySize": 100,
		"showCodes": true,
		"gridSize": 16,
		"showLiga": false,
		"showGrid": false,
		"showGlyphs": true,
		"showQuickUse": true,
		"search": "",
		"showQuickUse2": true,
		"showSVGs": true
	}
}